{
    "api": "/api/v1/",
    "eventsUrl": null,
    "eventsMaxMissedHeartbeats": 5,
    "eventsHeartbeatIntervalTime": 60000,
    "eventsReconnectTryInterval": 10000,
    "debug": true,
    "debugInfo": false,
    "defaultLanguage": "en",
    "themes": ${TAIGA_THEMES},
    "defaultTheme": "${TAIGA_DEFAULT_THEME}",
    "publicRegisterEnabled": true,
    "feedbackEnabled": true,
    "privacyPolicyUrl": null,
    "termsOfServiceUrl": null,
    "maxUploadFileSize": null,
    "contribPlugins": [],
    "tribeHost": null,
    "importers": [],
    "gravatar": true
}
